<?xml version="1.0" encoding="utf-8"?>
<!-- Generator: Adobe Illustrator 22.1.0, SVG Export Plug-In . SVG Version: 6.00 Build 0)  -->
<svg version="1.1" id="Livello_1" xmlns="http://www.w3.org/2000/svg" xmlns:xlink="http://www.w3.org/1999/xlink" x="0px" y="0px"
	 viewBox="0 0 399.7 324" style="enable-background:new 0 0 399.7 324;" xml:space="preserve">
<style type="text/css">
	.st0{fill:url(#SVGID_1_);}
	.st1{fill:url(#SVGID_2_);stroke:#000000;stroke-width:0.75;stroke-miterlimit:10;}
	.st2{fill:url(#SVGID_3_);stroke:#000000;stroke-width:0.75;stroke-miterlimit:10;}
	.st3{fill:url(#SVGID_4_);}
	.st4{fill:url(#SVGID_5_);stroke:#000000;stroke-width:0.75;stroke-miterlimit:10;}
	.st5{fill:url(#SVGID_6_);stroke:#000000;stroke-width:0.75;stroke-miterlimit:10;}
</style>
<radialGradient id="SVGID_1_" cx="204.7751" cy="168.6516" r="137.6667" gradientTransform="matrix(-1 0 0 1 409.5503 0)" gradientUnits="userSpaceOnUse">
	<stop  offset="0.8054" style="stop-color:#000000;stop-opacity:0"/>
	<stop  offset="0.817" style="stop-color:#252221;stop-opacity:6.157448e-02"/>
	<stop  offset="0.8393" style="stop-color:#4C4547;stop-opacity:0.1804"/>
	<stop  offset="0.8701" style="stop-color:#7E6C77;stop-opacity:0.3445"/>
	<stop  offset="0.9078" style="stop-color:#B88FAC;stop-opacity:0.5454"/>
	<stop  offset="0.9274" style="stop-color:#D69AC5;stop-opacity:0.65"/>
	<stop  offset="0.9378" style="stop-color:#BA79B2;stop-opacity:0.6927"/>
	<stop  offset="0.9512" style="stop-color:#9C579E;stop-opacity:0.7484"/>
	<stop  offset="0.9645" style="stop-color:#843E90;stop-opacity:0.8032"/>
	<stop  offset="0.9773" style="stop-color:#732F88;stop-opacity:0.856"/>
	<stop  offset="0.9893" style="stop-color:#6A2784;stop-opacity:0.9059"/>
	<stop  offset="1" style="stop-color:#662483;stop-opacity:0.95"/>
</radialGradient>
<path class="st0" d="M67.1,168.7c0,76,61.6,137.7,137.7,137.7s137.7-61.6,137.7-137.7S280.8,31,204.8,31S67.1,92.6,67.1,168.7z
	 M78.8,168.7c0-69.6,56.4-126,126-126s126,56.4,126,126s-56.4,126-126,126S78.8,238.2,78.8,168.7z"/>
<g>
	
		<linearGradient id="SVGID_2_" gradientUnits="userSpaceOnUse" x1="145.2685" y1="124.9016" x2="252.6651" y2="124.9016" gradientTransform="matrix(-1 0 0 1 409.5503 0)">
		<stop  offset="0" style="stop-color:#FFFFFF"/>
		<stop  offset="0.4541" style="stop-color:#B86CA9"/>
		<stop  offset="0.8649" style="stop-color:#662483"/>
	</linearGradient>
	<polyline class="st1" points="156.9,168.7 264.3,90.2 247.3,81.2 	"/>
	
		<linearGradient id="SVGID_3_" gradientUnits="userSpaceOnUse" x1="145.2685" y1="168.6516" x2="281.9482" y2="168.6516" gradientTransform="matrix(-1 0 0 1 409.5503 0)">
		<stop  offset="0" style="stop-color:#FFFFFF"/>
		<stop  offset="0.4541" style="stop-color:#B86CA9"/>
		<stop  offset="0.8649" style="stop-color:#662483"/>
	</linearGradient>
	<polygon class="st2" points="156.9,168.7 264.3,247.2 247.3,256.2 127.6,168.7 247.3,81.2 264.3,90.2 	"/>
</g>
</svg>
