<?xml version="1.0" encoding="utf-8"?>
<!-- Generator: Adobe Illustrator 22.1.0, SVG Export Plug-In . SVG Version: 6.00 Build 0)  -->
<svg version="1.1" id="Objects" xmlns="http://www.w3.org/2000/svg" xmlns:xlink="http://www.w3.org/1999/xlink" x="0px" y="0px"
	 viewBox="0 0 800 372.8" style="enable-background:new 0 0 800 372.8;" xml:space="preserve">
<style type="text/css">
	.st0{fill:#FACC96;stroke:#000000;stroke-miterlimit:10;}
	.st1{opacity:0.5;fill:url(#SVGID_1_);stroke:#000000;stroke-miterlimit:10;}
	.st2{fill:#F27484;stroke:#000000;stroke-miterlimit:10;}
	.st3{fill:#96567E;stroke:#000000;stroke-miterlimit:10;}
	.st4{fill:#F2F998;stroke:#000000;stroke-miterlimit:10;}
	.st5{opacity:0.5;fill:url(#SVGID_2_);stroke:#000000;stroke-miterlimit:10;}
	.st6{fill:#DCA5C5;stroke:#000000;stroke-miterlimit:10;}
	.st7{opacity:0.5;fill:url(#SVGID_3_);stroke:#000000;stroke-miterlimit:10;}
	.st8{fill:#DDDDDD;stroke:#000000;stroke-miterlimit:10;}
	.st9{fill:#F9BE69;stroke:#000000;stroke-miterlimit:10;}
	.st10{opacity:0.5;fill:url(#SVGID_4_);stroke:#000000;stroke-miterlimit:10;}
</style>
<path class="st6" d="M301.4,137c-11.3,4.9-22.2,63.5-4.8,128.7c-6.9-10.9-13.8-24.1-20.7-39.7c-34.3-78.4-21.5-159.8-8.1-165.7
	c13.4-5.9,81.9,39.9,116.2,118.3c6.9,15.7,11.8,29.7,15.2,42.2C363.1,163.8,312.7,132,301.4,137z"/>
<radialGradient id="SVGID_1_" cx="346.0259" cy="223.6716" r="74.2608" gradientUnits="userSpaceOnUse">
	<stop  offset="0" style="stop-color:#FFFFFF"/>
	<stop  offset="1" style="stop-color:#F1F1F2"/>
</radialGradient>
<path class="st1" d="M301.4,137c11.3-4.9,61.7,26.8,97.8,83.8c13.3,50,0.4,75.5-23.5,85.9c-23.9,10.5-51.4,2.7-79.1-41
	C279.2,200.5,290.1,141.9,301.4,137z"/>
<path class="st8" d="M211.1,261.8c0.1,12.3,49.6,45.4,116.4,55.1c-12.8,2.1-27.6,3.2-44.7,3.4c-85.6,0.7-155.3-43.1-155.5-57.8
	s68.9-59.6,154.5-60.2c17.1-0.1,31.9,0.8,44.7,2.7C260,215.6,211,249.5,211.1,261.8z"/>
<path class="st6" d="M211.1,261.8c-0.1-12.3,48.9-46.2,115.6-56.9c51.2,7.4,69.5,29.4,69.7,55.4s-17.8,48.3-68.8,56.5
	C260.8,307.2,211.2,274.1,211.1,261.8z"/>
<path class="st9" d="M244.1,182.9c-7.2,10,13.1,66,61.2,113.3c-11.5-5.9-24.1-13.7-38-23.7c-69.4-50.1-99.7-126.7-91.1-138.6
	c8.6-11.9,90.8-7.2,160.2,42.9c13.9,10,25.3,19.6,34.5,28.6C310.9,174.6,251.3,172.9,244.1,182.9z"/>
<path class="st4" d="M244.1,182.9c7.2-10,66.7-8.2,126.8,22.5c36.9,36.3,38.6,64.8,23.4,86s-43,28.4-89,4.8
	C257.3,248.8,236.9,192.9,244.1,182.9z"/>
<path class="st6" d="M450.3,137c11.3,4.9,22.2,63.5,4.8,128.7c6.9-10.9,13.8-24.1,20.7-39.7c34.3-78.4,21.5-159.8,8.1-165.7
	c-13.4-5.9-81.9,39.9-116.2,118.3c-6.9,15.7-11.8,29.7-15.2,42.2C388.7,163.8,439.1,132,450.3,137z"/>
<radialGradient id="SVGID_2_" cx="156.7132" cy="223.6716" r="74.2608" gradientTransform="matrix(-1 0 0 1 562.4196 0)" gradientUnits="userSpaceOnUse">
	<stop  offset="0" style="stop-color:#FFFFFF"/>
	<stop  offset="1" style="stop-color:#F1F1F2"/>
</radialGradient>
<path class="st5" d="M450.3,137c-11.3-4.9-61.7,26.8-97.8,83.8c-13.3,50-0.4,75.5,23.5,85.9s51.4,2.7,79.1-41
	C472.5,200.5,461.6,141.9,450.3,137z"/>
<path class="st8" d="M540.6,261.8c-0.1,12.3-49.6,45.4-116.4,55.1c12.8,2.1,27.6,3.2,44.7,3.4c85.6,0.7,155.3-43.1,155.5-57.8
	s-68.9-59.6-154.5-60.2c-17.1-0.1-31.9,0.8-44.7,2.7C491.7,215.6,540.7,249.5,540.6,261.8z"/>
<path class="st6" d="M540.6,261.8c0.1-12.3-48.9-46.2-115.6-56.9c-51.2,7.4-69.5,29.4-69.7,55.4c-0.2,26.1,17.8,48.3,68.8,56.5
	C491,307.2,540.5,274.1,540.6,261.8z"/>
<path class="st9" d="M507.6,182.9c7.2,10-13.1,66-61.2,113.3c11.5-5.9,24.1-13.7,38-23.7c69.4-50.1,99.7-126.7,91.1-138.6
	c-8.6-11.9-90.8-7.2-160.2,42.9c-13.9,10-25.3,19.6-34.5,28.6C440.9,174.6,500.4,172.9,507.6,182.9z"/>
<path class="st4" d="M507.6,182.9c-7.2-10-66.7-8.2-126.8,22.5c-36.9,36.3-38.6,64.8-23.4,86c15.3,21.1,43,28.4,89,4.8
	C494.5,248.8,514.8,192.9,507.6,182.9z"/>
<path class="st8" d="M376,135.6c12.3,0,45.8,49.3,56,116c1.9-12.8,3-27.6,3-44.7c0-85.6-44.4-155-59-155s-59,69.4-59,155
	c0,17.1,1.1,31.9,3,44.7C330.2,184.9,363.7,135.6,376,135.6z"/>
<path class="st4" d="M376,135.6c-12.3,0-45.8,49.3-56,116c7.8,51.1,29.9,69.3,56,69.3s48.2-18.2,56-69.3
	C421.8,184.9,388.3,135.6,376,135.6z"/>
</svg>
